{
"_inventory": "Body parts/Bindings",
"_objects": "Objects",
"_pick_action": "Pick an action below",
"_default_action_builder_0": "{0}{1}",
"_default_action_completed_1": "{0}{1}{2}",
"_default_action_builder_1": "{0}{1}{2}{3}",
"_default_action_completed_2": "{0}{1}{2}{3}{4}",
"_default_action_builder_linker_0": " ",
"_default_action_builder_linker_1": " with ",
"_default_action_builder_linker_2": " on ",
"_default_action_completed_linker_0": " ",
"_default_action_completed_linker_1": " with ",
"_default_action_completed_linker_2": " on ",
"_you_cant_do_that": "You can't do that!",
"_hint_{0}": "Hint {0}",
"_click_to_close": "(click to close)",
"_Menu": "Menu",
"_Main menu": "Exit to title screen",
"_New game": "New game",
"_Continue": "Continue",
"_Save game": "Save game",
"_Load game": "Load game",
"_Delete game": "Delete game",
"_Credits": "Credits",
"_Save": "Save",
"_Close": "Close"
}