{
"_inventory": "身体の部位／拘束状態",
"_objects": "物体名",
"_pick_action": "下のアクションを選択して下さい",
"_default_action_builder_0": "{1}{0}？",
"_default_action_completed_1": "{2}{1}{0}",
"_default_action_builder_1": "{2}{3}{0}？",
"_default_action_completed_2": "{4}{3}{2}{1}{0}",
"_default_action_builder_linker_0": "何を",
"_default_action_builder_linker_1": "を何に対して",
"_default_action_builder_linker_2": "on",
"_default_action_completed_linker_0": "を",
"_default_action_completed_linker_1": "に対して",
"_default_action_completed_linker_2": "",
"_you_cant_do_that": "実行した行動はエスケープ要素にならないようだ・・・",
"_hint_{0}": "ヒント{0}",
"_click_to_close": "クリックして閉じる",
"_Menu": "メニュー",
"_Main menu": "タイトル画面に戻る",
"_New game": "ニューゲーム",
"_Continue": "コンチニュ",
"_Save game": "サブゲーム",
"_Load game": "ロドゲーム",
"_Delete game": "ゲームを削除する",
"_Credits": "クレヂツ",
"_Save": "サブ",
"_Close": "閉じる"
}